<?xml version="1.0" encoding="UTF-8" standalone="no"?>
<!-- Created with Inkscape (http://www.inkscape.org/) -->

<svg
   xmlns:dc="http://purl.org/dc/elements/1.1/"
   xmlns:cc="http://creativecommons.org/ns#"
   xmlns:rdf="http://www.w3.org/1999/02/22-rdf-syntax-ns#"
   xmlns:svg="http://www.w3.org/2000/svg"
   xmlns="http://www.w3.org/2000/svg"
   xmlns:sodipodi="http://sodipodi.sourceforge.net/DTD/sodipodi-0.dtd"
   xmlns:inkscape="http://www.inkscape.org/namespaces/inkscape"
   width="35.110001"
   height="35.109455"
   id="svg3756"
   version="1.1"
   inkscape:version="0.48.2 r9819"
   sodipodi:docname="01_Belts.svg">
  <defs
     id="defs3758" />
  <sodipodi:namedview
     id="base"
     pagecolor="#ffffff"
     bordercolor="#666666"
     borderopacity="1.0"
     inkscape:pageopacity="0.0"
     inkscape:pageshadow="2"
     inkscape:zoom="20.934206"
     inkscape:cx="17.555"
     inkscape:cy="17.554728"
     inkscape:document-units="px"
     inkscape:current-layer="layer1"
     showgrid="false"
     fit-margin-top="0"
     fit-margin-left="0"
     fit-margin-right="0"
     fit-margin-bottom="0"
     inkscape:window-width="1280"
     inkscape:window-height="949"
     inkscape:window-x="0"
     inkscape:window-y="24"
     inkscape:window-maximized="1" />
  <metadata
     id="metadata3761">
    <rdf:RDF>
      <cc:Work
         rdf:about="">
        <dc:format>image/svg+xml</dc:format>
        <dc:type
           rdf:resource="http://purl.org/dc/dcmitype/StillImage" />
        <dc:title />
      </cc:Work>
    </rdf:RDF>
  </metadata>
  <g
     inkscape:label="Layer 1"
     inkscape:groupmode="layer"
     id="layer1"
     transform="translate(-59.565586,-403.37888)">
    <path
       style="fill:none;stroke:#ff0000;stroke-width:2.5;stroke-linecap:butt;stroke-linejoin:miter;stroke-miterlimit:4;stroke-opacity:1;stroke-dasharray:none"
       d="m 70.024703,414.98109 c -0.067,-8.53753 1.58777,-10.24067 7.34183,-10.34263 5.35929,-0.26892 9.33229,5.17745 6.31959,9.9118 -1.54861,1.75858 -2.68229,3.3097 -6.2827,6.09418 -3.22369,2.52842 -7.84846,4.86729 -8.03868,9.62938 0.50964,4.76909 3.88445,6.61874 7.70543,6.96452 7.28987,-0.68041 7.94694,-6.48529 7.78636,-10.8146"
       id="path2986"
       inkscape:connector-curvature="0"
       sodipodi:nodetypes="ccccccc" />
    <path
       style="fill:none;stroke:none;stroke-width:0.20000000000000001;stroke-miterlimit:4;stroke-opacity:1;stroke-dasharray:none"
       d="M 0,-5.4489136e-4 0,35.109455 l 35.11,0 0,-35.10999989136 z"
       id="path2983"
       inkscape:connector-curvature="0"
       transform="translate(59.565586,403.37888)"
       sodipodi:nodetypes="ccccc" />
  </g>
</svg>
