<?xml version="1.0" encoding="UTF-8" standalone="no"?>
<!-- Created with Inkscape (http://www.inkscape.org/) -->

<svg
   xmlns:dc="http://purl.org/dc/elements/1.1/"
   xmlns:cc="http://creativecommons.org/ns#"
   xmlns:rdf="http://www.w3.org/1999/02/22-rdf-syntax-ns#"
   xmlns:svg="http://www.w3.org/2000/svg"
   xmlns="http://www.w3.org/2000/svg"
   xmlns:sodipodi="http://sodipodi.sourceforge.net/DTD/sodipodi-0.dtd"
   xmlns:inkscape="http://www.inkscape.org/namespaces/inkscape"
   width="43.71875"
   height="43.720001"
   id="svg6322"
   version="1.1"
   inkscape:version="0.48.2 r9819"
   sodipodi:docname="New document 50">
  <defs
     id="defs6324" />
  <sodipodi:namedview
     id="base"
     pagecolor="#ffffff"
     bordercolor="#666666"
     borderopacity="1.0"
     inkscape:pageopacity="0.0"
     inkscape:pageshadow="2"
     inkscape:zoom="5.397987"
     inkscape:cx="21.859375"
     inkscape:cy="21.860001"
     inkscape:document-units="px"
     inkscape:current-layer="layer1"
     showgrid="false"
     fit-margin-top="0"
     fit-margin-left="0"
     fit-margin-right="0"
     fit-margin-bottom="0"
     inkscape:window-width="672"
     inkscape:window-height="424"
     inkscape:window-x="0"
     inkscape:window-y="51"
     inkscape:window-maximized="0" />
  <metadata
     id="metadata6327">
    <rdf:RDF>
      <cc:Work
         rdf:about="">
        <dc:format>image/svg+xml</dc:format>
        <dc:type
           rdf:resource="http://purl.org/dc/dcmitype/StillImage" />
        <dc:title></dc:title>
      </cc:Work>
    </rdf:RDF>
  </metadata>
  <g
     inkscape:label="Layer 1"
     inkscape:groupmode="layer"
     id="layer1"
     transform="translate(-58.15112,-387.3741)">
    <g
       transform="translate(-373.16138,-106.13666)"
       style="display:inline"
       id="g5883">
      <path
         sodipodi:nodetypes="ccccccc"
         inkscape:connector-curvature="0"
         id="path5778"
         d="m 431.74959,515.20037 10.98041,-9.22323 21.3015,0 10.54168,9.22354 -10.54119,9.66276 -21.1753,-4.7e-4 z"
         style="fill:#ffffff;fill-opacity:1;stroke:#ff0000;stroke-width:1.35354328;stroke-linecap:butt;stroke-linejoin:bevel;stroke-miterlimit:4;stroke-opacity:1;stroke-dasharray:none" />
      <path
         inkscape:connector-curvature="0"
         id="path5780"
         d="m 455.90649,505.75753 15.15296,12.29806 0,0"
         style="fill:none;stroke:#ff0000;stroke-width:0.67322832;stroke-linecap:butt;stroke-linejoin:bevel;stroke-miterlimit:4;stroke-opacity:1;stroke-dasharray:none" />
      <path
         inkscape:connector-curvature="0"
         id="path5782"
         d="m 449.75746,505.97714 17.56865,15.37257"
         style="fill:none;stroke:#ff0000;stroke-width:0.67322832;stroke-linecap:butt;stroke-linejoin:bevel;stroke-miterlimit:4;stroke-opacity:1;stroke-dasharray:none" />
      <path
         inkscape:connector-curvature="0"
         id="path5784"
         d="m 441.63196,505.97714 21.30199,18.44709"
         style="fill:none;stroke:#ff0000;stroke-width:0.67322832;stroke-linecap:butt;stroke-linejoin:bevel;stroke-miterlimit:4;stroke-opacity:1;stroke-dasharray:none" />
      <path
         inkscape:connector-curvature="0"
         id="path5786"
         d="m 439.21627,508.39283 16.90983,16.251"
         style="fill:none;stroke:#ff0000;stroke-width:0.67322832;stroke-linecap:butt;stroke-linejoin:bevel;stroke-miterlimit:4;stroke-opacity:1;stroke-dasharray:none" />
      <path
         inkscape:connector-curvature="0"
         id="path5788"
         d="m 435.26332,511.46735 14.05492,12.95688"
         style="fill:none;stroke:#ff0000;stroke-width:0.67322832;stroke-linecap:butt;stroke-linejoin:bevel;stroke-miterlimit:4;stroke-opacity:1;stroke-dasharray:none" />
      <path
         inkscape:connector-curvature="0"
         id="path5790"
         d="M 449.75746,505.75753 434.6045,518.2752"
         style="fill:none;stroke:#ff0000;stroke-width:0.67322832;stroke-linecap:butt;stroke-linejoin:bevel;stroke-miterlimit:4;stroke-opacity:1;stroke-dasharray:none" />
      <path
         inkscape:connector-curvature="0"
         id="path5792"
         d="m 456.56531,505.53793 -18.00786,16.03139"
         style="fill:none;stroke:#ff0000;stroke-width:0.67322832;stroke-linecap:butt;stroke-linejoin:bevel;stroke-miterlimit:4;stroke-opacity:1;stroke-dasharray:none" />
      <path
         inkscape:connector-curvature="0"
         id="path5794"
         d="m 463.15356,505.97714 -20.64317,18.22748"
         style="fill:none;stroke:#ff0000;stroke-width:0.67322832;stroke-linecap:butt;stroke-linejoin:bevel;stroke-miterlimit:4;stroke-opacity:1;stroke-dasharray:none" />
      <path
         inkscape:connector-curvature="0"
         id="path5796"
         d="m 467.54572,509.05166 -18.44708,15.59217"
         style="fill:none;stroke:#ff0000;stroke-width:0.67322832;stroke-linecap:butt;stroke-linejoin:bevel;stroke-miterlimit:4;stroke-opacity:1;stroke-dasharray:none" />
      <path
         inkscape:connector-curvature="0"
         id="path5798"
         d="m 471.71827,512.34578 -15.15296,12.29805"
         style="fill:none;stroke:#ff0000;stroke-width:0.67322832;stroke-linecap:butt;stroke-linejoin:bevel;stroke-miterlimit:4;stroke-opacity:1;stroke-dasharray:none" />
    </g>
  </g>
</svg>
