<?xml version="1.0" encoding="UTF-8" standalone="no"?>
<!-- Created with Inkscape (http://www.inkscape.org/) -->

<svg
   xmlns:dc="http://purl.org/dc/elements/1.1/"
   xmlns:cc="http://creativecommons.org/ns#"
   xmlns:rdf="http://www.w3.org/1999/02/22-rdf-syntax-ns#"
   xmlns:svg="http://www.w3.org/2000/svg"
   xmlns="http://www.w3.org/2000/svg"
   xmlns:sodipodi="http://sodipodi.sourceforge.net/DTD/sodipodi-0.dtd"
   xmlns:inkscape="http://www.inkscape.org/namespaces/inkscape"
   width="48.287109"
   height="48.290001"
   id="svg2"
   version="1.1"
   inkscape:version="0.48.2 r9819"
   sodipodi:docname="Unknown_Symbol.svg">
  <defs
     id="defs4" />
  <sodipodi:namedview
     id="base"
     pagecolor="#ffffff"
     bordercolor="#666666"
     borderopacity="1.0"
     inkscape:pageopacity="0.0"
     inkscape:pageshadow="2"
     inkscape:zoom="5.622142"
     inkscape:cx="-7.7245826"
     inkscape:cy="13.057617"
     inkscape:document-units="px"
     inkscape:current-layer="layer1"
     showgrid="false"
     fit-margin-top="0"
     fit-margin-left="0"
     fit-margin-right="0"
     fit-margin-bottom="0"
     inkscape:window-width="1280"
     inkscape:window-height="949"
     inkscape:window-x="0"
     inkscape:window-y="24"
     inkscape:window-maximized="1" />
  <metadata
     id="metadata7">
    <rdf:RDF>
      <cc:Work
         rdf:about="">
        <dc:format>image/svg+xml</dc:format>
        <dc:type
           rdf:resource="http://purl.org/dc/dcmitype/StillImage" />
        <dc:title />
      </cc:Work>
    </rdf:RDF>
  </metadata>
  <g
     inkscape:label="Layer 1"
     inkscape:groupmode="layer"
     id="layer1"
     transform="translate(-251.6864,-427.31186)">
    <g
       id="g3073">
      <path
         inkscape:connector-curvature="0"
         id="path3019"
         d="m 257.30554,438.39923 1.13672,0 0,4.96289 c -10e-6,0.86329 -0.0977,1.54883 -0.29297,2.05664 -0.19532,0.50782 -0.54883,0.92188 -1.06054,1.24219 -0.50782,0.31641 -1.17579,0.47461 -2.00391,0.47461 -0.80469,0 -1.46289,-0.13867 -1.97461,-0.41602 -0.51172,-0.27734 -0.87696,-0.67773 -1.0957,-1.20117 -0.21875,-0.52734 -0.32813,-1.24609 -0.32813,-2.15625 l 0,-4.96289 1.13672,0 0,4.95703 c 0,0.7461 0.0684,1.29688 0.20508,1.65235 0.14062,0.35156 0.3789,0.62304 0.71484,0.81445 0.33984,0.19141 0.7539,0.28711 1.24219,0.28711 0.83593,0 1.43163,-0.18945 1.78711,-0.56836 0.35546,-0.37891 0.5332,-1.10742 0.5332,-2.18555 l 0,-4.95703"
         style="font-size:12px;font-style:normal;font-variant:normal;font-weight:normal;font-stretch:normal;text-align:center;line-height:125%;letter-spacing:0px;word-spacing:0px;text-anchor:middle;fill:#ff0000;fill-opacity:1;stroke:none;font-family:Arial;-inkscape-font-specification:Arial" />
      <path
         inkscape:connector-curvature="0"
         id="path3021"
         d="m 260.20593,446.98907 0,-6.22265 0.94922,0 0,0.88476 c 0.45703,-0.68358 1.11719,-1.02538 1.98047,-1.02539 0.375,1e-5 0.71875,0.0684 1.03125,0.20508 0.3164,0.13282 0.55273,0.3086 0.70898,0.52735 0.15625,0.21875 0.26562,0.47852 0.32813,0.77929 0.0391,0.19532 0.0586,0.53712 0.0586,1.02539 l 0,3.82617 -1.05468,0 0,-3.78515 c -10e-6,-0.42968 -0.041,-0.75 -0.12305,-0.96094 -0.082,-0.21484 -0.22852,-0.38476 -0.43945,-0.50976 -0.20704,-0.12891 -0.45118,-0.19336 -0.73243,-0.19336 -0.44922,0 -0.83789,0.14258 -1.16601,0.42773 -0.32422,0.28516 -0.48633,0.82618 -0.48633,1.62305 l 0,3.39843 -1.05469,0"
         style="font-size:12px;font-style:normal;font-variant:normal;font-weight:normal;font-stretch:normal;text-align:center;line-height:125%;letter-spacing:0px;word-spacing:0px;text-anchor:middle;fill:#ff0000;fill-opacity:1;stroke:none;font-family:Arial;-inkscape-font-specification:Arial" />
      <path
         inkscape:connector-curvature="0"
         id="path3023"
         d="m 266.89148,446.98907 0,-8.58984 1.05469,0 0,4.89844 2.49609,-2.53125 1.36524,0 -2.37891,2.30859 2.61914,3.91406 -1.30078,0 -2.05664,-3.18164 -0.74414,0.71485 0,2.46679 -1.05469,0"
         style="font-size:12px;font-style:normal;font-variant:normal;font-weight:normal;font-stretch:normal;text-align:center;line-height:125%;letter-spacing:0px;word-spacing:0px;text-anchor:middle;fill:#ff0000;fill-opacity:1;stroke:none;font-family:Arial;-inkscape-font-specification:Arial" />
      <path
         inkscape:connector-curvature="0"
         id="path3025"
         d="m 272.88562,446.98907 0,-6.22265 0.94922,0 0,0.88476 c 0.45703,-0.68358 1.11718,-1.02538 1.98047,-1.02539 0.37499,1e-5 0.71874,0.0684 1.03125,0.20508 0.3164,0.13282 0.55273,0.3086 0.70898,0.52735 0.15625,0.21875 0.26562,0.47852 0.32813,0.77929 0.0391,0.19532 0.0586,0.53712 0.0586,1.02539 l 0,3.82617 -1.05469,0 0,-3.78515 c 0,-0.42968 -0.041,-0.75 -0.12304,-0.96094 -0.082,-0.21484 -0.22852,-0.38476 -0.43946,-0.50976 -0.20703,-0.12891 -0.45117,-0.19336 -0.73242,-0.19336 -0.44922,0 -0.83789,0.14258 -1.16601,0.42773 -0.32423,0.28516 -0.48633,0.82618 -0.48633,1.62305 l 0,3.39843 -1.05469,0"
         style="font-size:12px;font-style:normal;font-variant:normal;font-weight:normal;font-stretch:normal;text-align:center;line-height:125%;letter-spacing:0px;word-spacing:0px;text-anchor:middle;fill:#ff0000;fill-opacity:1;stroke:none;font-family:Arial;-inkscape-font-specification:Arial" />
      <path
         inkscape:connector-curvature="0"
         id="path3027"
         d="m 279.17273,443.87775 c 0,-1.15234 0.32031,-2.00586 0.96094,-2.56055 0.53515,-0.46093 1.18749,-0.6914 1.95703,-0.69141 0.85546,1e-5 1.55468,0.28126 2.09765,0.84375 0.54297,0.5586 0.81445,1.33204 0.81446,2.32032 -1e-5,0.80078 -0.1211,1.43164 -0.36328,1.89257 -0.23829,0.45704 -0.5879,0.8125 -1.04883,1.06641 -0.45704,0.25391 -0.95704,0.38086 -1.5,0.38086 -0.8711,0 -1.57618,-0.2793 -2.11524,-0.83789 -0.53515,-0.55859 -0.80273,-1.36328 -0.80273,-2.41406 m 1.08398,0 c 0,0.79687 0.17383,1.39453 0.52149,1.79297 0.34765,0.39453 0.78515,0.59179 1.3125,0.59179 0.52343,0 0.95898,-0.19922 1.30664,-0.59765 0.34765,-0.39844 0.52148,-1.00586 0.52148,-1.82227 0,-0.76953 -0.17578,-1.35156 -0.52734,-1.74609 -0.34766,-0.39844 -0.78125,-0.59765 -1.30078,-0.59766 -0.52735,1e-5 -0.96485,0.19727 -1.3125,0.5918 -0.34766,0.39453 -0.52149,0.99024 -0.52149,1.78711"
         style="font-size:12px;font-style:normal;font-variant:normal;font-weight:normal;font-stretch:normal;text-align:center;line-height:125%;letter-spacing:0px;word-spacing:0px;text-anchor:middle;fill:#ff0000;fill-opacity:1;stroke:none;font-family:Arial;-inkscape-font-specification:Arial" />
      <path
         inkscape:connector-curvature="0"
         id="path3029"
         d="m 287.39343,446.98907 -1.90429,-6.22265 1.08984,0 0.99023,3.5918 0.36914,1.33593 c 0.0156,-0.0664 0.12305,-0.49414 0.32227,-1.2832 l 0.99023,-3.64453 1.08399,0 0.93164,3.60937 0.31055,1.18946 0.35742,-1.20118 1.0664,-3.59765 1.0254,0 -1.94532,6.22265 -1.0957,0 -0.99023,-3.72656 -0.24024,-1.06054 -1.25976,4.7871 -1.10157,0"
         style="font-size:12px;font-style:normal;font-variant:normal;font-weight:normal;font-stretch:normal;text-align:center;line-height:125%;letter-spacing:0px;word-spacing:0px;text-anchor:middle;fill:#ff0000;fill-opacity:1;stroke:none;font-family:Arial;-inkscape-font-specification:Arial" />
      <path
         inkscape:connector-curvature="0"
         id="path3031"
         d="m 294.91687,446.98907 0,-6.22265 0.94922,0 0,0.88476 c 0.45703,-0.68358 1.11718,-1.02538 1.98047,-1.02539 0.37499,1e-5 0.71874,0.0684 1.03125,0.20508 0.3164,0.13282 0.55273,0.3086 0.70898,0.52735 0.15625,0.21875 0.26562,0.47852 0.32813,0.77929 0.0391,0.19532 0.0586,0.53712 0.0586,1.02539 l 0,3.82617 -1.05469,0 0,-3.78515 c 0,-0.42968 -0.041,-0.75 -0.12304,-0.96094 -0.082,-0.21484 -0.22852,-0.38476 -0.43946,-0.50976 -0.20703,-0.12891 -0.45117,-0.19336 -0.73242,-0.19336 -0.44922,0 -0.83789,0.14258 -1.16601,0.42773 -0.32423,0.28516 -0.48633,0.82618 -0.48633,1.62305 l 0,3.39843 -1.05469,0"
         style="font-size:12px;font-style:normal;font-variant:normal;font-weight:normal;font-stretch:normal;text-align:center;line-height:125%;letter-spacing:0px;word-spacing:0px;text-anchor:middle;fill:#ff0000;fill-opacity:1;stroke:none;font-family:Arial;-inkscape-font-specification:Arial" />
      <path
         inkscape:connector-curvature="0"
         id="path3033"
         d="m 256.28601,459.22931 1.07227,-0.0937 c 0.0508,0.42969 0.16796,0.7832 0.35156,1.06055 0.1875,0.27343 0.47656,0.49609 0.86719,0.66796 0.39062,0.16797 0.83007,0.25196 1.31836,0.25196 0.43358,0 0.8164,-0.0645 1.14843,-0.19336 0.33203,-0.12891 0.57812,-0.30469 0.73828,-0.52735 0.16406,-0.22656 0.24609,-0.47265 0.2461,-0.73828 -1e-5,-0.26953 -0.0781,-0.5039 -0.23438,-0.70312 -0.15625,-0.20312 -0.41406,-0.37305 -0.77343,-0.50977 -0.23048,-0.0898 -0.74024,-0.22851 -1.5293,-0.41601 -0.78907,-0.1914 -1.3418,-0.37109 -1.6582,-0.53907 -0.41016,-0.21483 -0.7168,-0.48046 -0.91993,-0.79687 -0.19922,-0.32031 -0.29883,-0.67773 -0.29882,-1.07227 -1e-5,-0.43358 0.12304,-0.83788 0.36914,-1.21289 0.24609,-0.37889 0.60546,-0.666 1.07812,-0.86132 0.47265,-0.19531 0.99804,-0.29296 1.57617,-0.29297 0.63672,1e-5 1.19726,0.10352 1.68164,0.31054 0.48828,0.20314 0.86328,0.50392 1.125,0.90235 0.26172,0.39844 0.40234,0.84961 0.42188,1.35351 l -1.08984,0.082 c -0.0586,-0.54296 -0.25782,-0.95311 -0.59766,-1.23046 -0.33594,-0.27734 -0.83399,-0.41601 -1.49414,-0.41602 -0.68751,10e-6 -1.18946,0.12696 -1.50586,0.38086 -0.3125,0.25001 -0.46875,0.55274 -0.46875,0.9082 0,0.3086 0.11132,0.56251 0.33398,0.76172 0.21875,0.19923 0.78906,0.4043 1.71094,0.61524 0.92578,0.20703 1.56054,0.38867 1.9043,0.54492 0.49999,0.23047 0.86913,0.52344 1.10742,0.8789 0.23827,0.35157 0.35741,0.75782 0.35742,1.21875 -10e-6,0.45704 -0.13087,0.88868 -0.39258,1.29493 -0.26172,0.40234 -0.63867,0.71679 -1.13086,0.94335 -0.48828,0.22266 -1.03906,0.33399 -1.65234,0.33399 -0.77735,0 -1.42969,-0.11328 -1.95703,-0.33984 -0.52344,-0.22657 -0.93555,-0.56641 -1.23633,-1.01954 -0.29687,-0.45703 -0.45312,-0.97265 -0.46875,-1.54687"
         style="font-size:12px;font-style:normal;font-variant:normal;font-weight:normal;font-stretch:normal;text-align:center;line-height:125%;letter-spacing:0px;word-spacing:0px;text-anchor:middle;fill:#ff0000;fill-opacity:1;stroke:none;font-family:Arial;-inkscape-font-specification:Arial" />
      <path
         inkscape:connector-curvature="0"
         id="path3035"
         d="m 264.50671,464.38556 -0.11718,-0.99024 c 0.23046,0.0625 0.43164,0.0937 0.60351,0.0937 0.23438,0 0.42188,-0.0391 0.5625,-0.11718 0.14063,-0.0781 0.25586,-0.1875 0.34571,-0.32813 0.0664,-0.10547 0.17382,-0.36719 0.32226,-0.78515 0.0195,-0.0586 0.0508,-0.14454 0.0937,-0.25782 l -2.36133,-6.23437 1.13672,0 1.29492,3.60351 c 0.16797,0.45704 0.31836,0.93751 0.45118,1.44141 0.12109,-0.48437 0.26562,-0.95703 0.43359,-1.41797 l 1.33008,-3.62695 1.05468,0 -2.36718,6.32812 c -0.25391,0.6836 -0.45118,1.1543 -0.5918,1.41211 -0.1875,0.34766 -0.40235,0.60156 -0.64453,0.76172 -0.24219,0.16406 -0.53125,0.24609 -0.86719,0.2461 -0.20312,-10e-6 -0.42969,-0.043 -0.67969,-0.12891"
         style="font-size:12px;font-style:normal;font-variant:normal;font-weight:normal;font-stretch:normal;text-align:center;line-height:125%;letter-spacing:0px;word-spacing:0px;text-anchor:middle;fill:#ff0000;fill-opacity:1;stroke:none;font-family:Arial;-inkscape-font-specification:Arial" />
      <path
         inkscape:connector-curvature="0"
         id="path3037"
         d="m 270.55359,461.98907 0,-6.22265 0.94336,0 0,0.87305 c 0.19531,-0.30469 0.45507,-0.54883 0.7793,-0.73243 0.32421,-0.18749 0.69335,-0.28124 1.10742,-0.28125 0.46093,1e-5 0.83788,0.0957 1.13086,0.28711 0.29687,0.19141 0.50585,0.45899 0.62695,0.80274 0.49218,-0.72656 1.13281,-1.08984 1.92187,-1.08985 0.61718,1e-5 1.09179,0.17188 1.42383,0.51563 0.33202,0.33985 0.49804,0.86524 0.49805,1.57617 l 0,4.27148 -1.04883,0 0,-3.91992 c -10e-6,-0.42187 -0.0352,-0.7246 -0.10547,-0.9082 -0.0664,-0.1875 -0.18946,-0.33789 -0.36914,-0.45117 -0.17969,-0.11328 -0.39063,-0.16992 -0.63281,-0.16992 -0.43751,0 -0.80079,0.14649 -1.08984,0.43945 -0.28907,0.28907 -0.4336,0.75391 -0.4336,1.39453 l 0,3.61523 -1.05469,0 0,-4.04296 c 0,-0.46875 -0.0859,-0.82031 -0.25781,-1.05469 -0.17188,-0.23437 -0.45313,-0.35156 -0.84375,-0.35156 -0.29688,0 -0.57227,0.0781 -0.82617,0.23437 -0.25,0.15626 -0.43164,0.38477 -0.54492,0.68555 -0.11328,0.30078 -0.16993,0.73438 -0.16992,1.30078 l 0,3.22851 -1.05469,0"
         style="font-size:12px;font-style:normal;font-variant:normal;font-weight:normal;font-stretch:normal;text-align:center;line-height:125%;letter-spacing:0px;word-spacing:0px;text-anchor:middle;fill:#ff0000;fill-opacity:1;stroke:none;font-family:Arial;-inkscape-font-specification:Arial" />
      <path
         inkscape:connector-curvature="0"
         id="path3039"
         d="m 281.53406,461.98907 -0.97852,0 0,-8.58984 1.05469,0 0,3.06445 c 0.44531,-0.55858 1.01367,-0.83788 1.70508,-0.83789 0.38281,1e-5 0.74413,0.0781 1.08398,0.23438 0.34375,0.15235 0.625,0.36914 0.84375,0.65039 0.22265,0.27735 0.39648,0.61329 0.52149,1.00781 0.12499,0.39454 0.18749,0.81641 0.1875,1.26563 -10e-6,1.0664 -0.26368,1.89062 -0.79102,2.47265 -0.52735,0.58203 -1.16016,0.87305 -1.89844,0.87305 -0.73437,0 -1.31055,-0.30664 -1.72851,-0.91992 l 0,0.77929 m -0.0117,-3.1582 c 0,0.7461 0.10156,1.28516 0.30469,1.61719 0.33203,0.54297 0.78124,0.81445 1.34765,0.81445 0.46094,0 0.85937,-0.19922 1.19532,-0.59765 0.33593,-0.40235 0.5039,-1 0.5039,-1.79297 0,-0.8125 -0.16211,-1.41211 -0.48633,-1.79883 -0.32031,-0.38671 -0.70899,-0.58007 -1.16601,-0.58008 -0.46094,1e-5 -0.85938,0.20118 -1.19531,0.60352 -0.33594,0.39844 -0.50391,0.97656 -0.50391,1.73437"
         style="font-size:12px;font-style:normal;font-variant:normal;font-weight:normal;font-stretch:normal;text-align:center;line-height:125%;letter-spacing:0px;word-spacing:0px;text-anchor:middle;fill:#ff0000;fill-opacity:1;stroke:none;font-family:Arial;-inkscape-font-specification:Arial" />
      <path
         inkscape:connector-curvature="0"
         id="path3041"
         d="m 286.84851,458.87775 c 0,-1.15234 0.32031,-2.00586 0.96094,-2.56055 0.53515,-0.46093 1.1875,-0.6914 1.95703,-0.69141 0.85546,1e-5 1.55468,0.28126 2.09766,0.84375 0.54296,0.5586 0.81444,1.33204 0.81445,2.32032 -10e-6,0.80078 -0.1211,1.43164 -0.36328,1.89257 -0.23829,0.45704 -0.5879,0.8125 -1.04883,1.06641 -0.45704,0.25391 -0.95704,0.38086 -1.5,0.38086 -0.8711,0 -1.57617,-0.2793 -2.11523,-0.83789 -0.53516,-0.55859 -0.80274,-1.36328 -0.80274,-2.41406 m 1.08399,0 c -1e-5,0.79687 0.17382,1.39453 0.52148,1.79297 0.34765,0.39453 0.78515,0.59179 1.3125,0.59179 0.52343,0 0.95898,-0.19922 1.30664,-0.59765 0.34765,-0.39844 0.52148,-1.00586 0.52148,-1.82227 0,-0.76953 -0.17578,-1.35156 -0.52734,-1.74609 -0.34766,-0.39844 -0.78125,-0.59765 -1.30078,-0.59766 -0.52735,1e-5 -0.96485,0.19727 -1.3125,0.5918 -0.34766,0.39453 -0.52149,0.99024 -0.52148,1.78711"
         style="font-size:12px;font-style:normal;font-variant:normal;font-weight:normal;font-stretch:normal;text-align:center;line-height:125%;letter-spacing:0px;word-spacing:0px;text-anchor:middle;fill:#ff0000;fill-opacity:1;stroke:none;font-family:Arial;-inkscape-font-specification:Arial" />
      <path
         inkscape:connector-curvature="0"
         id="path3043"
         d="m 293.89734,461.98907 0,-8.58984 1.05469,0 0,8.58984 -1.05469,0"
         style="font-size:12px;font-style:normal;font-variant:normal;font-weight:normal;font-stretch:normal;text-align:center;line-height:125%;letter-spacing:0px;word-spacing:0px;text-anchor:middle;fill:#ff0000;fill-opacity:1;stroke:none;font-family:Arial;-inkscape-font-specification:Arial" />
      <path
         sodipodi:nodetypes="ccccc"
         inkscape:connector-curvature="0"
         id="path3759"
         d="m 251.6864,427.31186 48.29,0 0,48.29 -48.29,0 z"
         style="fill:none;stroke:none" />
    </g>
  </g>
</svg>
